Number,Name,Position,Height,Year,Hometown,Games,Rebounds,Personal Fouls,PTS/G,FG%,3PT %,FT%
02,Shequell Gilgeous-Glasgow,,,,,4,21,10,13,29.1,20,76.2
03,Sydney Kabongo,,,,,3,10,9,14.7,40.9,27.8,50
04,Hugh Weichel,Shooting Guard,6'0,2,Southhampton,8,11,0,1.3,25,16.7,75
05,Avery Sutton,Shooting Guard,5'10,3,Kitchener,11,45,15,16.4,39.7,32.9,84.2
06,Kelvin Edgar,Guard,5'10,1,Mississauga,2,0,1,0.5,0,0,50
07,Blake Butler,Guard,6'2,2,Sarnia,10,7,11,0.4,22.2,0,0
08,Jalen Roberts,Point Guard,6'1,1,Brampton,9,25,16,8.9,34.7,33.3,77.8
09,Dylan Manani,Guard,6'0,1,Mississauga,4,3,4,0.8,50,0,100
10,Stefan Simic,Point Guard,5'11,3,Kitchener,7,22,16,11.6,32.9,26.1,73.1
11,Ahmed Radi,Point Guard,6'0,2,Kitchener,8,23,11,0.9,23.1,0,50
12,Jevante Cooper,Guard,5'10,1,Mississauga,10,20,15,5.7,39.1,44.8,80
13,Tucker Sutton,Center,6'3,2,Kitchener,2,1,3,2,25,50,50
15,Efose Agbonze,Foward,6'2,3,Kitchener,11,107,35,14.2,57.8,,50.7
21,Isaiah Edwards,Foward,6'4,2,Mississauga,11,63,39,11.9,51.4,7.7,53.3
22,Tanoundy Sylla,Small Foward,6'3,4,Ottawa,11,60,34,6.3,30.6,30,68.8
23,Ahmed Hassan,Guard,5'11,2,Kitchener,3,7,4,0.7,0,0,100
24,Radwan Sabriye,,,,,,,,,,,